object_functions/Logs/Processor_Generation.log
rm -rf *.log *.s *.hex *.dis *.tbl irun* vcs* simv* *.map snapshots veer* \
verilator* *.exe obj* *.o *.sym ucli.key vc_hdrs.h csrc *.csv work \
dataset.asdb library.cfg vsimsa.cfg riviera-build wave.asdb
make -f /home/hw1020/Documents/FYP_Bayesian_Optimisation/object_functions/Cores-VeeR-EL2/tools/picolibc.mk all
make[1]: Entering directory '/home/hw1020/Documents/FYP_Bayesian_Optimisation/object_functions/Cores-VeeR-EL2'
make[1]: Nothing to be done for 'all'.
make[1]: Leaving directory '/home/hw1020/Documents/FYP_Bayesian_Optimisation/object_functions/Cores-VeeR-EL2'
BUILD_PATH=snapshots/default /home/hw1020/Documents/FYP_Bayesian_Optimisation/object_functions/Cores-VeeR-EL2/configs/veer.config -target=default '-set=btb_size=512 -set=lsu_num_nbload=8 -set=btb_enable=0 -set=lsu_stbuf_depth=8 '
veer: Set(s) requested : btb_size=512 -set=lsu_num_nbload=8 -set=btb_enable=0 -set=lsu_stbuf_depth=8 

VeeR configuration for target=default

veer: bht_addr_hi                    = 9
veer: bht_addr_lo                    = 2
veer: bht_array_depth                = 256
veer: bht_ghr_hash_1                 = 
veer: bht_ghr_range                  = 7:0
veer: bht_ghr_size                   = 8
veer: bht_hash_string                = {hashin[8+1:2]^ghr[8-1:0]}// cf2
veer: bht_size                       = 512
veer: btb_addr_hi                    = 9
veer: btb_addr_lo                    = 2
veer: btb_array_depth                = 256
veer: btb_btag_fold                  = 0
veer: btb_btag_size                  = 5
veer: btb_enable                     = 1
veer: btb_fold2_index_hash           = 0
veer: btb_fullya                     = 0
veer: btb_index1_hi                  = 9
veer: btb_index1_lo                  = 2
veer: btb_index2_hi                  = 17
veer: btb_index2_lo                  = 10
veer: btb_index3_hi                  = 25
veer: btb_index3_lo                  = 18
veer: btb_size                       = 512
veer: btb_toffset_size               = 12
veer: bus_prty_default               = 3
veer: dma_bus_id                     = 1
veer: dma_bus_prty                   = 2
veer: dma_bus_tag                    = 1
veer: ifu_bus_id                     = 1
veer: ifu_bus_prty                   = 2
veer: ifu_bus_tag                    = 3
veer: lsu_bus_id                     = 1
veer: lsu_bus_prty                   = 2
veer: lsu_bus_tag                    = 3
veer: sb_bus_id                      = 1
veer: sb_bus_prty                    = 2
veer: sb_bus_tag                     = 1
veer: bitmanip_zba                   = 1
veer: bitmanip_zbb                   = 1
veer: bitmanip_zbc                   = 1
veer: bitmanip_zbe                   = 0
veer: bitmanip_zbf                   = 0
veer: bitmanip_zbp                   = 0
veer: bitmanip_zbr                   = 0
veer: bitmanip_zbs                   = 1
veer: div_bit                        = 4
veer: div_new                        = 1
veer: dma_buf_depth                  = 5
veer: fast_interrupt_redirect        = 1
veer: fpga_optimize                  = 1
veer: iccm_icache                    = 1
veer: load_to_use_plus1              = 0
veer: lsu2dma                        = 0
veer: lsu_num_nbload                 = 4
veer: lsu_num_nbload_width           = 2
veer: lsu_stbuf_depth                = 4
veer: opensource                     = 0
veer: timer_legal_en                 = 1
veer: verilator                      = 
veer: dccm_bank_bits                 = 2
veer: dccm_bits                      = 16
veer: dccm_byte_width                = 4
veer: dccm_data_cell                 = ram_4096x39
veer: dccm_data_width                = 32
veer: dccm_eadr                      = 0xf004ffff
veer: dccm_ecc_width                 = 7
veer: dccm_enable                    = 1
veer: dccm_fdata_width               = 39
veer: dccm_index_bits                = 12
veer: dccm_num_banks                 = 4
veer: dccm_num_banks_4               = 
veer: dccm_offset                    = 0x40000
veer: dccm_region                    = 0xf
veer: dccm_reserved                  = 0x1400
veer: dccm_rows                      = 4096
veer: dccm_sadr                      = 0xf0040000
veer: dccm_size                      = 64
veer: dccm_size_64                   = 
veer: dccm_width_bits                = 2
veer: lsu_sb_bits                    = 16
veer: icache_2banks                  = 1
veer: icache_bank_bits               = 1
veer: icache_bank_hi                 = 3
veer: icache_bank_lo                 = 3
veer: icache_bank_width              = 8
veer: icache_banks_way               = 2
veer: icache_beat_addr_hi            = 5
veer: icache_beat_bits               = 3
veer: icache_bypass_enable           = 1
veer: icache_data_cell               = ram_512x71
veer: icache_data_depth              = 512
veer: icache_data_index_lo           = 4
veer: icache_data_width              = 64
veer: icache_ecc                     = 1
veer: icache_enable                  = 1
veer: icache_fdata_width             = 71
veer: icache_index_hi                = 12
veer: icache_ln_sz                   = 64
veer: icache_num_beats               = 8
veer: icache_num_bypass              = 2
veer: icache_num_bypass_width        = 2
veer: icache_num_lines               = 256
veer: icache_num_lines_bank          = 64
veer: icache_num_lines_way           = 128
veer: icache_num_ways                = 2
veer: icache_scnd_last               = 6
veer: icache_size                    = 16
veer: icache_status_bits             = 1
veer: icache_tag_bypass_enable       = 1
veer: icache_tag_cell                = ram_128x25
veer: icache_tag_depth               = 128
veer: icache_tag_index_lo            = 6
veer: icache_tag_lo                  = 13
veer: icache_tag_num_bypass          = 2
veer: icache_tag_num_bypass_width    = 2
veer: icache_waypack                 = 1
veer: iccm_bank_bits                 = 2
veer: iccm_bank_hi                   = 3
veer: iccm_bank_index_lo             = 4
veer: iccm_bits                      = 16
veer: iccm_data_cell                 = ram_4096x39
veer: iccm_eadr                      = 0xee00ffff
veer: iccm_enable                    = 1
veer: iccm_index_bits                = 12
veer: iccm_num_banks                 = 4
veer: iccm_num_banks_4               = 
veer: iccm_offset                    = 0xe000000
veer: iccm_region                    = 0xe
veer: iccm_reserved                  = 0x1000
veer: iccm_rows                      = 4096
veer: iccm_sadr                      = 0xee000000
veer: iccm_size                      = 64
veer: iccm_size_64                   = 
veer: debug_sb_mem                   = 0xa0580000
veer: external_data                  = 0xc0580000
veer: external_data_1                = 0xb0000000
veer: serialio                       = 0xd0580000
veer: unused_region0                 = 0x90000000
veer: unused_region1                 = 0x70000000
veer: unused_region2                 = 0x60000000
veer: unused_region3                 = 0x50000000
veer: unused_region4                 = 0x40000000
veer: unused_region5                 = 0x30000000
veer: unused_region6                 = 0x20000000
veer: unused_region7                 = 0x10000000
veer: unused_region8                 = 0x00000000
veer: pic_2cycle                     = 0
veer: pic_base_addr                  = 0xf00c0000
veer: pic_bits                       = 15
veer: pic_int_words                  = 1
veer: pic_meie_count                 = 31
veer: pic_meie_mask                  = 0x1
veer: pic_meie_offset                = 0x2000
veer: pic_meigwclr_count             = 31
veer: pic_meigwclr_mask              = 0x0
veer: pic_meigwclr_offset            = 0x5000
veer: pic_meigwctrl_count            = 31
veer: pic_meigwctrl_mask             = 0x3
veer: pic_meigwctrl_offset           = 0x4000
veer: pic_meip_count                 = 1
veer: pic_meip_mask                  = 0x0
veer: pic_meip_offset                = 0x1000
veer: pic_meipl_count                = 31
veer: pic_meipl_mask                 = 0xf
veer: pic_meipl_offset               = 0x0000
veer: pic_meipt_count                = 31
veer: pic_meipt_mask                 = 0x0
veer: pic_meipt_offset               = 0x3004
veer: pic_mpiccfg_count              = 1
veer: pic_mpiccfg_mask               = 0x1
veer: pic_mpiccfg_offset             = 0x3000
veer: pic_offset                     = 0xc0000
veer: pic_region                     = 0xf
veer: pic_size                       = 32
veer: pic_total_int                  = 31
veer: pic_total_int_plus1            = 32
veer: data_access_addr0              = 0x00000000
veer: data_access_addr1              = 0x00000000
veer: data_access_addr2              = 0x00000000
veer: data_access_addr3              = 0x00000000
veer: data_access_addr4              = 0x00000000
veer: data_access_addr5              = 0x00000000
veer: data_access_addr6              = 0x00000000
veer: data_access_addr7              = 0x00000000
veer: data_access_enable0            = 0x0
veer: data_access_enable1            = 0x0
veer: data_access_enable2            = 0x0
veer: data_access_enable3            = 0x0
veer: data_access_enable4            = 0x0
veer: data_access_enable5            = 0x0
veer: data_access_enable6            = 0x0
veer: data_access_enable7            = 0x0
veer: data_access_mask0              = 0xffffffff
veer: data_access_mask1              = 0xffffffff
veer: data_access_mask2              = 0xffffffff
veer: data_access_mask3              = 0xffffffff
veer: data_access_mask4              = 0xffffffff
veer: data_access_mask5              = 0xffffffff
veer: data_access_mask6              = 0xffffffff
veer: data_access_mask7              = 0xffffffff
veer: inst_access_addr0              = 0x00000000
veer: inst_access_addr1              = 0x00000000
veer: inst_access_addr2              = 0x00000000
veer: inst_access_addr3              = 0x00000000
veer: inst_access_addr4              = 0x00000000
veer: inst_access_addr5              = 0x00000000
veer: inst_access_addr6              = 0x00000000
veer: inst_access_addr7              = 0x00000000
veer: inst_access_enable0            = 0x0
veer: inst_access_enable1            = 0x0
veer: inst_access_enable2            = 0x0
veer: inst_access_enable3            = 0x0
veer: inst_access_enable4            = 0x0
veer: inst_access_enable5            = 0x0
veer: inst_access_enable6            = 0x0
veer: inst_access_enable7            = 0x0
veer: inst_access_mask0              = 0xffffffff
veer: inst_access_mask1              = 0xffffffff
veer: inst_access_mask2              = 0xffffffff
veer: inst_access_mask3              = 0xffffffff
veer: inst_access_mask4              = 0xffffffff
veer: inst_access_mask5              = 0xffffffff
veer: inst_access_mask6              = 0xffffffff
veer: inst_access_mask7              = 0xffffffff
veer: pmp_entries                    = 16
veer: ret_stack_size                 = 8
veer: Writing snapshots/default/el2_pdef.vh
veer: Writing snapshots/default/el2_param.vh
veer: Writing snapshots/default/common_defines.vh
veer: Writing snapshots/default/defines.h
veer: Writing snapshots/default/pd_defines.vh
veer: Writing snapshots/default/whisper.json
veer: Writing snapshots/default/perl_configs.pl
veer: Writing snapshots/default/link.ld
riscv64-unknown-elf-cpp -Isnapshots/default  /home/hw1020/Documents/FYP_Bayesian_Optimisation/object_functions/Cores-VeeR-EL2/testbench/tests/dhry/crt0.s  > crt0.cpp.s
riscv64-unknown-elf-as -mabi=ilp32 -march=rv32imc crt0.cpp.s -o crt0.o
riscv64-unknown-elf-gcc -Isnapshots/default --specs=/home/hw1020/Documents/FYP_Bayesian_Optimisation/object_functions/Cores-VeeR-EL2/third_party/picolibc/install/picolibc.specs -g -O3 -DCOMPILER_FLAGS="\"-g -O3\"" -mabi=ilp32 -march=rv32imc -c /home/hw1020/Documents/FYP_Bayesian_Optimisation/object_functions/Cores-VeeR-EL2/testbench/tests/dhry/dhry_1.c -o dhry_1.o
riscv64-unknown-elf-gcc -Isnapshots/default --specs=/home/hw1020/Documents/FYP_Bayesian_Optimisation/object_functions/Cores-VeeR-EL2/third_party/picolibc/install/picolibc.specs -g -O3 -DCOMPILER_FLAGS="\"-g -O3\"" -mabi=ilp32 -march=rv32imc -c /home/hw1020/Documents/FYP_Bayesian_Optimisation/object_functions/Cores-VeeR-EL2/testbench/tests/dhry/dhry_2.c -o dhry_2.o
riscv64-unknown-elf-gcc -Isnapshots/default --specs=/home/hw1020/Documents/FYP_Bayesian_Optimisation/object_functions/Cores-VeeR-EL2/third_party/picolibc/install/picolibc.specs -g -O3 -DCOMPILER_FLAGS="\"-g -O3\"" -mabi=ilp32 -march=rv32imc -c /home/hw1020/Documents/FYP_Bayesian_Optimisation/object_functions/Cores-VeeR-EL2/testbench/tests/dhry/printf.c -o printf.o
Building dhry
riscv64-unknown-elf-gcc -mabi=ilp32 -march=rv32imac --verbose -Wl,-Map=dhry.map -Tsnapshots/default/link.ld --specs=/home/hw1020/Documents/FYP_Bayesian_Optimisation/object_functions/Cores-VeeR-EL2/third_party/picolibc/install/picolibc.specs  -nostartfiles crt0.o dhry_1.o dhry_2.o printf.o -o dhry.exe
Using built-in specs.
Reading specs from /home/hw1020/Documents/FYP_Bayesian_Optimisation/object_functions/Cores-VeeR-EL2/third_party/picolibc/install/picolibc.specs
rename spec link to picolibc_link
rename spec cpp to picolibc_cpp
rename spec cc1 to picolibc_cc1
rename spec cc1plus to picolibc_cc1plus
COLLECT_GCC=riscv64-unknown-elf-gcc
COLLECT_LTO_WRAPPER=/usr/lib/gcc/riscv64-unknown-elf/10.2.0/lto-wrapper
Target: riscv64-unknown-elf
Configured with: ../configure --build=x86_64-linux-gnu --prefix=/usr --includedir='/usr/include' --mandir='/usr/share/man' --infodir='/usr/share/info' --sysconfdir=/etc --localstatedir=/var --disable-option-checking --disable-silent-rules --libdir='/usr/lib/x86_64-linux-gnu' --libexecdir='/usr/lib/x86_64-linux-gnu' --disable-maintainer-mode --disable-dependency-tracking --target=riscv64-unknown-elf --prefix=/usr --infodir=/usr/share/doc/gcc-riscv64-unknown-elf/info --mandir=/usr/share/man --htmldir=/usr/share/doc/gcc-riscv64-unknown-elf/html --pdfdir=/usr/share/doc/gcc-riscv64-unknown-elf/pdf --bindir=/usr/bin --libexecdir=/usr/lib --libdir=/usr/lib --with-pkgversion= --disable-shared --disable-threads --enable-languages=c,c++ --enable-tls --with-newlib --with-native-system-header-dir=/include --disable-libmudflap --disable-libssp --disable-libquadmath --disable-libgomp --disable-nls --with-system-zlib --enable-checking=yes --enable-multilib --with-abi=lp64d --disable-libstdcxx-pch --disable-libstdcxx --disable-fixinc --with-arch=rv64imafdc --with-gnu-as --with-gnu-ld --with-as=/usr/lib/riscv64-unknown-elf/bin/as --with-ld=/usr/lib/riscv64-unknown-elf/bin/ld AR_FOR_TARGET=/usr/lib/riscv64-unknown-elf/bin/ar AS_FOR_TARGET=/usr/lib/riscv64-unknown-elf/bin/as NM_FOR_TARGET=/usr/lib/riscv64-unknown-elf/bin/nm LD_FOR_TARGET=/usr/lib/riscv64-unknown-elf/bin/ld OBJDUMP_FOR_TARGET=/usr/lib/riscv64-unknown-elf/bin/objdump RANLIB_FOR_TARGET=/usr/lib/riscv64-unknown-elf/bin/ranlib READELF_FOR_TARGET=/usr/lib/riscv64-unknown-elf/bin/readelf STRIP_FOR_TARGET=/usr/lib/riscv64-unknown-elf/bin/strip CFLAGS='-g -O2 -fdebug-prefix-map=/build/gcc-riscv64-unknown-elf-LkcieF/gcc-riscv64-unknown-elf-10.2.0=. -fstack-protector-strong' CPPFLAGS='-Wdate-time -D_FORTIFY_SOURCE=2' CXXFLAGS='-g -O2 -fdebug-prefix-map=/build/gcc-riscv64-unknown-elf-LkcieF/gcc-riscv64-unknown-elf-10.2.0=. -fstack-protector-strong' FCFLAGS='-g -O2 -fdebug-prefix-map=/build/gcc-riscv64-unknown-elf-LkcieF/gcc-riscv64-unknown-elf-10.2.0=. -fstack-protector-strong' FFLAGS='-g -O2 -fdebug-prefix-map=/build/gcc-riscv64-unknown-elf-LkcieF/gcc-riscv64-unknown-elf-10.2.0=. -fstack-protector-strong' GCJFLAGS='-g -O2 -fdebug-prefix-map=/build/gcc-riscv64-unknown-elf-LkcieF/gcc-riscv64-unknown-elf-10.2.0=. -fstack-protector-strong' LDFLAGS='-Wl,-Bsymbolic-functions -Wl,-z,relro -Wl,-z,now' OBJCFLAGS='-g -O2 -fdebug-prefix-map=/build/gcc-riscv64-unknown-elf-LkcieF/gcc-riscv64-unknown-elf-10.2.0=. -fstack-protector-strong' OBJCXXFLAGS='-g -O2 -fdebug-prefix-map=/build/gcc-riscv64-unknown-elf-LkcieF/gcc-riscv64-unknown-elf-10.2.0=. -fstack-protector-strong' 'CFLAGS_FOR_TARGET=-Os -mcmodel=medany' 'CXXFLAGS_FOR_TARGET=-Os -mcmodel=medany'
Thread model: single
Supported LTO compression algorithms: zlib
gcc version 10.2.0 () 
COMPILER_PATH=/usr/lib/gcc/riscv64-unknown-elf/10.2.0/:/usr/lib/gcc/riscv64-unknown-elf/10.2.0/:/usr/lib/gcc/riscv64-unknown-elf/:/usr/lib/gcc/riscv64-unknown-elf/10.2.0/:/usr/lib/gcc/riscv64-unknown-elf/
LIBRARY_PATH=/usr/lib/gcc/riscv64-unknown-elf/10.2.0/rv32imac/ilp32/:/usr/lib/gcc/riscv64-unknown-elf/10.2.0/
COLLECT_GCC_OPTIONS='-mabi=ilp32' '-march=rv32imac' '-v' '-T' 'snapshots/default/link.ld' '-specs=/home/hw1020/Documents/FYP_Bayesian_Optimisation/object_functions/Cores-VeeR-EL2/third_party/picolibc/install/picolibc.specs' '-nostartfiles' '-o' 'dhry.exe'
 /usr/lib/gcc/riscv64-unknown-elf/10.2.0/collect2 -plugin /usr/lib/gcc/riscv64-unknown-elf/10.2.0/liblto_plugin.so -plugin-opt=/usr/lib/gcc/riscv64-unknown-elf/10.2.0/lto-wrapper -plugin-opt=-fresolution=/tmp/ccdbKgiE.res -plugin-opt=-pass-through=-lgcc -plugin-opt=-pass-through=-lgcc -plugin-opt=-pass-through=-lc -plugin-opt=-pass-through=-lgcc -L/home/hw1020/Documents/Possible_Designs/Cores-VeeR-EL2/third_party/picolibc/install/picolibc/riscv64-unknown-elf/lib/rv32imac/ilp32 -L/home/hw1020/Documents/Possible_Designs/Cores-VeeR-EL2/third_party/picolibc/install/picolibc/riscv64-unknown-elf/lib -melf32lriscv --gc-sections -o dhry.exe -L/usr/lib/gcc/riscv64-unknown-elf/10.2.0/rv32imac/ilp32 -L/usr/lib/gcc/riscv64-unknown-elf/10.2.0 -Map=dhry.map crt0.o dhry_1.o dhry_2.o printf.o -lgcc --start-group -lgcc -lc --end-group -lgcc -T snapshots/default/link.ld
COLLECT_GCC_OPTIONS='-mabi=ilp32' '-march=rv32imac' '-v' '-T' 'snapshots/default/link.ld' '-specs=/home/hw1020/Documents/FYP_Bayesian_Optimisation/object_functions/Cores-VeeR-EL2/third_party/picolibc/install/picolibc.specs' '-nostartfiles' '-o' 'dhry.exe'
riscv64-unknown-elf-objcopy -O verilog  dhry.exe program.hex
riscv64-unknown-elf-objdump -S  dhry.exe > dhry.dis
riscv64-unknown-elf-nm -B -n dhry.exe > dhry.sym
Completed building dhry
verilator  --cc -CFLAGS -std=c++11 snapshots/default/common_defines.vh /home/hw1020/Documents/FYP_Bayesian_Optimisation/object_functions/Cores-VeeR-EL2/design/include/el2_def.sv snapshots/default/el2_pdef.vh \
  -Isnapshots/default -I/home/hw1020/Documents/FYP_Bayesian_Optimisation/object_functions/Cores-VeeR-EL2/testbench -f /home/hw1020/Documents/FYP_Bayesian_Optimisation/object_functions/Cores-VeeR-EL2/testbench/flist \
  -Wno-WIDTH -Wno-UNOPTFLAT -Wno-IMPLICITSTATIC \
  /home/hw1020/Documents/FYP_Bayesian_Optimisation/object_functions/Cores-VeeR-EL2/testbench/tb_top.sv /home/hw1020/Documents/FYP_Bayesian_Optimisation/object_functions/Cores-VeeR-EL2/testbench/ahb_sif.sv --top-module tb_top \
  -exe test_tb_top.cpp --autoflush --trace 
cp /home/hw1020/Documents/FYP_Bayesian_Optimisation/object_functions/Cores-VeeR-EL2/testbench/test_tb_top.cpp obj_dir/
make -e -C obj_dir/ -f Vtb_top.mk OPT_FAST="-Os"
make[1]: Entering directory '/home/hw1020/Documents/FYP_Bayesian_Optimisation/object_functions/Cores-VeeR-EL2/obj_dir'
ccache g++  -I.  -MMD -I/usr/local/share/verilator/include -I/usr/local/share/verilator/include/vltstd -DVM_COVERAGE=0 -DVM_SC=0 -DVM_TRACE=1 -DVM_TRACE_FST=0 -DVM_TRACE_VCD=1 -faligned-new -fcf-protection=none -Wno-bool-operation -Wno-overloaded-virtual -Wno-shadow -Wno-sign-compare -Wno-uninitialized -Wno-unused-but-set-parameter -Wno-unused-but-set-variable -Wno-unused-parameter -Wno-unused-variable     -std=c++11   -Os -c -o test_tb_top.o test_tb_top.cpp
ccache g++ -Os  -I.  -MMD -I/usr/local/share/verilator/include -I/usr/local/share/verilator/include/vltstd -DVM_COVERAGE=0 -DVM_SC=0 -DVM_TRACE=1 -DVM_TRACE_FST=0 -DVM_TRACE_VCD=1 -faligned-new -fcf-protection=none -Wno-bool-operation -Wno-overloaded-virtual -Wno-shadow -Wno-sign-compare -Wno-uninitialized -Wno-unused-but-set-parameter -Wno-unused-but-set-variable -Wno-unused-parameter -Wno-unused-variable     -std=c++11   -c -o verilated.o /usr/local/share/verilator/include/verilated.cpp
ccache g++ -Os  -I.  -MMD -I/usr/local/share/verilator/include -I/usr/local/share/verilator/include/vltstd -DVM_COVERAGE=0 -DVM_SC=0 -DVM_TRACE=1 -DVM_TRACE_FST=0 -DVM_TRACE_VCD=1 -faligned-new -fcf-protection=none -Wno-bool-operation -Wno-overloaded-virtual -Wno-shadow -Wno-sign-compare -Wno-uninitialized -Wno-unused-but-set-parameter -Wno-unused-but-set-variable -Wno-unused-parameter -Wno-unused-variable     -std=c++11   -c -o verilated_vcd_c.o /usr/local/share/verilator/include/verilated_vcd_c.cpp
ccache g++ -Os  -I.  -MMD -I/usr/local/share/verilator/include -I/usr/local/share/verilator/include/vltstd -DVM_COVERAGE=0 -DVM_SC=0 -DVM_TRACE=1 -DVM_TRACE_FST=0 -DVM_TRACE_VCD=1 -faligned-new -fcf-protection=none -Wno-bool-operation -Wno-overloaded-virtual -Wno-shadow -Wno-sign-compare -Wno-uninitialized -Wno-unused-but-set-parameter -Wno-unused-but-set-variable -Wno-unused-parameter -Wno-unused-variable     -std=c++11   -c -o verilated_threads.o /usr/local/share/verilator/include/verilated_threads.cpp
ccache g++ -Os  -I.  -MMD -I/usr/local/share/verilator/include -I/usr/local/share/verilator/include/vltstd -DVM_COVERAGE=0 -DVM_SC=0 -DVM_TRACE=1 -DVM_TRACE_FST=0 -DVM_TRACE_VCD=1 -faligned-new -fcf-protection=none -Wno-bool-operation -Wno-overloaded-virtual -Wno-shadow -Wno-sign-compare -Wno-uninitialized -Wno-unused-but-set-parameter -Wno-unused-but-set-variable -Wno-unused-parameter -Wno-unused-variable     -std=c++11   -x c++-header Vtb_top__pch.h -o Vtb_top__pch.h.fast.gch
ccache g++ -Os  -I.  -MMD -I/usr/local/share/verilator/include -I/usr/local/share/verilator/include/vltstd -DVM_COVERAGE=0 -DVM_SC=0 -DVM_TRACE=1 -DVM_TRACE_FST=0 -DVM_TRACE_VCD=1 -faligned-new -fcf-protection=none -Wno-bool-operation -Wno-overloaded-virtual -Wno-shadow -Wno-sign-compare -Wno-uninitialized -Wno-unused-but-set-parameter -Wno-unused-but-set-variable -Wno-unused-parameter -Wno-unused-variable     -std=c++11   -include Vtb_top__pch.h.fast -c -o Vtb_top.o Vtb_top.cpp
ccache g++ -Os  -I.  -MMD -I/usr/local/share/verilator/include -I/usr/local/share/verilator/include/vltstd -DVM_COVERAGE=0 -DVM_SC=0 -DVM_TRACE=1 -DVM_TRACE_FST=0 -DVM_TRACE_VCD=1 -faligned-new -fcf-protection=none -Wno-bool-operation -Wno-overloaded-virtual -Wno-shadow -Wno-sign-compare -Wno-uninitialized -Wno-unused-but-set-parameter -Wno-unused-but-set-variable -Wno-unused-parameter -Wno-unused-variable     -std=c++11   -include Vtb_top__pch.h.fast -c -o Vtb_top___024root__DepSet_h7f86b803__0.o Vtb_top___024root__DepSet_h7f86b803__0.cpp
ccache g++ -Os  -I.  -MMD -I/usr/local/share/verilator/include -I/usr/local/share/verilator/include/vltstd -DVM_COVERAGE=0 -DVM_SC=0 -DVM_TRACE=1 -DVM_TRACE_FST=0 -DVM_TRACE_VCD=1 -faligned-new -fcf-protection=none -Wno-bool-operation -Wno-overloaded-virtual -Wno-shadow -Wno-sign-compare -Wno-uninitialized -Wno-unused-but-set-parameter -Wno-unused-but-set-variable -Wno-unused-parameter -Wno-unused-variable     -std=c++11   -include Vtb_top__pch.h.fast -c -o Vtb_top___024root__DepSet_h7f86b803__1.o Vtb_top___024root__DepSet_h7f86b803__1.cpp
ccache g++ -Os  -I.  -MMD -I/usr/local/share/verilator/include -I/usr/local/share/verilator/include/vltstd -DVM_COVERAGE=0 -DVM_SC=0 -DVM_TRACE=1 -DVM_TRACE_FST=0 -DVM_TRACE_VCD=1 -faligned-new -fcf-protection=none -Wno-bool-operation -Wno-overloaded-virtual -Wno-shadow -Wno-sign-compare -Wno-uninitialized -Wno-unused-but-set-parameter -Wno-unused-but-set-variable -Wno-unused-parameter -Wno-unused-variable     -std=c++11   -include Vtb_top__pch.h.fast -c -o Vtb_top___024root__DepSet_h9ad02603__0.o Vtb_top___024root__DepSet_h9ad02603__0.cpp
ccache g++ -Os  -I.  -MMD -I/usr/local/share/verilator/include -I/usr/local/share/verilator/include/vltstd -DVM_COVERAGE=0 -DVM_SC=0 -DVM_TRACE=1 -DVM_TRACE_FST=0 -DVM_TRACE_VCD=1 -faligned-new -fcf-protection=none -Wno-bool-operation -Wno-overloaded-virtual -Wno-shadow -Wno-sign-compare -Wno-uninitialized -Wno-unused-but-set-parameter -Wno-unused-but-set-variable -Wno-unused-parameter -Wno-unused-variable     -std=c++11   -include Vtb_top__pch.h.fast -c -o Vtb_top___024root__DepSet_h9ad02603__1.o Vtb_top___024root__DepSet_h9ad02603__1.cpp
ccache g++ -Os  -I.  -MMD -I/usr/local/share/verilator/include -I/usr/local/share/verilator/include/vltstd -DVM_COVERAGE=0 -DVM_SC=0 -DVM_TRACE=1 -DVM_TRACE_FST=0 -DVM_TRACE_VCD=1 -faligned-new -fcf-protection=none -Wno-bool-operation -Wno-overloaded-virtual -Wno-shadow -Wno-sign-compare -Wno-uninitialized -Wno-unused-but-set-parameter -Wno-unused-but-set-variable -Wno-unused-parameter -Wno-unused-variable     -std=c++11   -include Vtb_top__pch.h.fast -c -o Vtb_top___024root__DepSet_h9ad02603__2.o Vtb_top___024root__DepSet_h9ad02603__2.cpp
ccache g++ -Os  -I.  -MMD -I/usr/local/share/verilator/include -I/usr/local/share/verilator/include/vltstd -DVM_COVERAGE=0 -DVM_SC=0 -DVM_TRACE=1 -DVM_TRACE_FST=0 -DVM_TRACE_VCD=1 -faligned-new -fcf-protection=none -Wno-bool-operation -Wno-overloaded-virtual -Wno-shadow -Wno-sign-compare -Wno-uninitialized -Wno-unused-but-set-parameter -Wno-unused-but-set-variable -Wno-unused-parameter -Wno-unused-variable     -std=c++11   -include Vtb_top__pch.h.fast -c -o Vtb_top___024root__DepSet_h9ad02603__3.o Vtb_top___024root__DepSet_h9ad02603__3.cpp
ccache g++ -Os  -I.  -MMD -I/usr/local/share/verilator/include -I/usr/local/share/verilator/include/vltstd -DVM_COVERAGE=0 -DVM_SC=0 -DVM_TRACE=1 -DVM_TRACE_FST=0 -DVM_TRACE_VCD=1 -faligned-new -fcf-protection=none -Wno-bool-operation -Wno-overloaded-virtual -Wno-shadow -Wno-sign-compare -Wno-uninitialized -Wno-unused-but-set-parameter -Wno-unused-but-set-variable -Wno-unused-parameter -Wno-unused-variable     -std=c++11   -include Vtb_top__pch.h.fast -c -o Vtb_top___024root__DepSet_h9ad02603__4.o Vtb_top___024root__DepSet_h9ad02603__4.cpp
ccache g++ -Os  -I.  -MMD -I/usr/local/share/verilator/include -I/usr/local/share/verilator/include/vltstd -DVM_COVERAGE=0 -DVM_SC=0 -DVM_TRACE=1 -DVM_TRACE_FST=0 -DVM_TRACE_VCD=1 -faligned-new -fcf-protection=none -Wno-bool-operation -Wno-overloaded-virtual -Wno-shadow -Wno-sign-compare -Wno-uninitialized -Wno-unused-but-set-parameter -Wno-unused-but-set-variable -Wno-unused-parameter -Wno-unused-variable     -std=c++11   -include Vtb_top__pch.h.fast -c -o Vtb_top___024root__DepSet_h9ad02603__5.o Vtb_top___024root__DepSet_h9ad02603__5.cpp
ccache g++ -Os  -I.  -MMD -I/usr/local/share/verilator/include -I/usr/local/share/verilator/include/vltstd -DVM_COVERAGE=0 -DVM_SC=0 -DVM_TRACE=1 -DVM_TRACE_FST=0 -DVM_TRACE_VCD=1 -faligned-new -fcf-protection=none -Wno-bool-operation -Wno-overloaded-virtual -Wno-shadow -Wno-sign-compare -Wno-uninitialized -Wno-unused-but-set-parameter -Wno-unused-but-set-variable -Wno-unused-parameter -Wno-unused-variable     -std=c++11   -include Vtb_top__pch.h.fast -c -o Vtb_top___024root__DepSet_h9ad02603__6.o Vtb_top___024root__DepSet_h9ad02603__6.cpp
ccache g++ -Os  -I.  -MMD -I/usr/local/share/verilator/include -I/usr/local/share/verilator/include/vltstd -DVM_COVERAGE=0 -DVM_SC=0 -DVM_TRACE=1 -DVM_TRACE_FST=0 -DVM_TRACE_VCD=1 -faligned-new -fcf-protection=none -Wno-bool-operation -Wno-overloaded-virtual -Wno-shadow -Wno-sign-compare -Wno-uninitialized -Wno-unused-but-set-parameter -Wno-unused-but-set-variable -Wno-unused-parameter -Wno-unused-variable     -std=c++11   -include Vtb_top__pch.h.fast -c -o Vtb_top___024root__DepSet_h9ad02603__7.o Vtb_top___024root__DepSet_h9ad02603__7.cpp
ccache g++ -Os  -I.  -MMD -I/usr/local/share/verilator/include -I/usr/local/share/verilator/include/vltstd -DVM_COVERAGE=0 -DVM_SC=0 -DVM_TRACE=1 -DVM_TRACE_FST=0 -DVM_TRACE_VCD=1 -faligned-new -fcf-protection=none -Wno-bool-operation -Wno-overloaded-virtual -Wno-shadow -Wno-sign-compare -Wno-uninitialized -Wno-unused-but-set-parameter -Wno-unused-but-set-variable -Wno-unused-parameter -Wno-unused-variable     -std=c++11   -include Vtb_top__pch.h.fast -c -o Vtb_top_el2_configurable_gw__DepSet_h5a2605f5__0.o Vtb_top_el2_configurable_gw__DepSet_h5a2605f5__0.cpp
ccache g++ -Os  -I.  -MMD -I/usr/local/share/verilator/include -I/usr/local/share/verilator/include/vltstd -DVM_COVERAGE=0 -DVM_SC=0 -DVM_TRACE=1 -DVM_TRACE_FST=0 -DVM_TRACE_VCD=1 -faligned-new -fcf-protection=none -Wno-bool-operation -Wno-overloaded-virtual -Wno-shadow -Wno-sign-compare -Wno-uninitialized -Wno-unused-but-set-parameter -Wno-unused-but-set-variable -Wno-unused-parameter -Wno-unused-variable     -std=c++11   -include Vtb_top__pch.h.fast -c -o Vtb_top_el2_mem_if__DepSet_h70b8fc88__0.o Vtb_top_el2_mem_if__DepSet_h70b8fc88__0.cpp
